%!PS-Adobe-3.0 EPSF-3.0
%%Creator: MATLAB, The MathWorks, Inc. Version 7.12.0.635 (R2011a). Operating System: Microsoft Windows XP.
%%Title: Z:\research\indoor_rssi_tracking\feb11_2013\estimated_parameter_error_natural_vs_regular.eps
%%CreationDate: 03/28/2013  16:39:11
%%DocumentNeededFonts: Helvetica
%%+ Helvetica-Bold
%%DocumentProcessColors: Cyan Magenta Yellow Black
%%LanguageLevel: 2
%%Pages: 1
%%BoundingBox:  -413    79  1026   713
%%EndComments

%%BeginProlog
% MathWorks dictionary
/MathWorks 160 dict begin
% definition operators
/bdef {bind def} bind def
/ldef {load def} bind def
/xdef {exch def} bdef
/xstore {exch store} bdef
% operator abbreviations
/c  /clip ldef
/cc /concat ldef
/cp /closepath ldef
/gr /grestore ldef
/gs /gsave ldef
/mt /moveto ldef
/np /newpath ldef
/cm /currentmatrix ldef
/sm /setmatrix ldef
/rm /rmoveto ldef
/rl /rlineto ldef
/s {show newpath} bdef
/sc {setcmykcolor} bdef
/sr /setrgbcolor ldef
/sg /setgray ldef
/w /setlinewidth ldef
/j /setlinejoin ldef
/cap /setlinecap ldef
/rc {rectclip} bdef
/rf {rectfill} bdef
% page state control
/pgsv () def
/bpage {/pgsv save def} bdef
/epage {pgsv restore} bdef
/bplot /gsave ldef
/eplot {stroke grestore} bdef
% orientation switch
/portraitMode 0 def /landscapeMode 1 def /rotateMode 2 def
% coordinate system mappings
/dpi2point 0 def
% font control
/FontSize 0 def
/FMS {/FontSize xstore findfont [FontSize 0 0 FontSize neg 0 0]
  makefont setfont} bdef
/ISOLatin1Encoding where {pop /WindowsLatin1Encoding 256 array bdef
ISOLatin1Encoding WindowsLatin1Encoding copy pop
/.notdef/.notdef/quotesinglbase/florin/quotedblbase/ellipsis/dagger
/daggerdbl/circumflex/perthousand/Scaron/guilsinglleft/OE/.notdef/.notdef
/.notdef/.notdef/quoteleft/quoteright/quotedblleft/quotedblright/bullet
/endash/emdash/tilde/trademark/scaron/guilsinglright/oe/.notdef/.notdef
/Ydieresis WindowsLatin1Encoding 128 32 getinterval astore pop}
{/WindowsLatin1Encoding StandardEncoding bdef} ifelse
/reencode {exch dup where {pop load} {pop StandardEncoding} ifelse
  exch dup 3 1 roll findfont dup length dict begin
  { 1 index /FID ne {def}{pop pop} ifelse } forall
  /Encoding exch def currentdict end definefont pop} bdef
/isroman {findfont /CharStrings get /Agrave known} bdef
/FMSR {3 1 roll 1 index dup isroman {reencode} {pop pop} ifelse
  exch FMS} bdef
/csm {1 dpi2point div -1 dpi2point div scale neg translate
 dup landscapeMode eq {pop -90 rotate}
  {rotateMode eq {90 rotate} if} ifelse} bdef
% line types: solid, dotted, dashed, dotdash
/SO { [] 0 setdash } bdef
/DO { [.5 dpi2point mul 4 dpi2point mul] 0 setdash } bdef
/DA { [6 dpi2point mul] 0 setdash } bdef
/DD { [.5 dpi2point mul 4 dpi2point mul 6 dpi2point mul 4
  dpi2point mul] 0 setdash } bdef
% macros for lines and objects
/L {lineto stroke} bdef
/MP {3 1 roll moveto 1 sub {rlineto} repeat} bdef
/AP {{rlineto} repeat} bdef
/PDlw -1 def
/W {/PDlw currentlinewidth def setlinewidth} def
/PP {closepath eofill} bdef
/DP {closepath stroke} bdef
/MR {4 -2 roll moveto dup  0 exch rlineto exch 0 rlineto
  neg 0 exch rlineto closepath} bdef
/FR {MR stroke} bdef
/PR {MR fill} bdef
/L1i {{currentfile picstr readhexstring pop} image} bdef
/tMatrix matrix def
/MakeOval {newpath tMatrix currentmatrix pop translate scale
0 0 1 0 360 arc tMatrix setmatrix} bdef
/FO {MakeOval stroke} bdef
/PO {MakeOval fill} bdef
/PD {currentlinewidth 2 div 0 360 arc fill
   PDlw -1 eq not {PDlw w /PDlw -1 def} if} def
/FA {newpath tMatrix currentmatrix pop translate scale
  0 0 1 5 -2 roll arc tMatrix setmatrix stroke} bdef
/PA {newpath tMatrix currentmatrix pop	translate 0 0 moveto scale
  0 0 1 5 -2 roll arc closepath tMatrix setmatrix fill} bdef
/FAn {newpath tMatrix currentmatrix pop translate scale
  0 0 1 5 -2 roll arcn tMatrix setmatrix stroke} bdef
/PAn {newpath tMatrix currentmatrix pop translate 0 0 moveto scale
  0 0 1 5 -2 roll arcn closepath tMatrix setmatrix fill} bdef
/vradius 0 def /hradius 0 def /lry 0 def
/lrx 0 def /uly 0 def /ulx 0 def /rad 0 def
/MRR {/vradius xdef /hradius xdef /lry xdef /lrx xdef /uly xdef
  /ulx xdef newpath tMatrix currentmatrix pop ulx hradius add uly
  vradius add translate hradius vradius scale 0 0 1 180 270 arc 
  tMatrix setmatrix lrx hradius sub uly vradius add translate
  hradius vradius scale 0 0 1 270 360 arc tMatrix setmatrix
  lrx hradius sub lry vradius sub translate hradius vradius scale
  0 0 1 0 90 arc tMatrix setmatrix ulx hradius add lry vradius sub
  translate hradius vradius scale 0 0 1 90 180 arc tMatrix setmatrix
  closepath} bdef
/FRR {MRR stroke } bdef
/PRR {MRR fill } bdef
/MlrRR {/lry xdef /lrx xdef /uly xdef /ulx xdef /rad lry uly sub 2 div def
  newpath tMatrix currentmatrix pop ulx rad add uly rad add translate
  rad rad scale 0 0 1 90 270 arc tMatrix setmatrix lrx rad sub lry rad
  sub translate rad rad scale 0 0 1 270 90 arc tMatrix setmatrix
  closepath} bdef
/FlrRR {MlrRR stroke } bdef
/PlrRR {MlrRR fill } bdef
/MtbRR {/lry xdef /lrx xdef /uly xdef /ulx xdef /rad lrx ulx sub 2 div def
  newpath tMatrix currentmatrix pop ulx rad add uly rad add translate
  rad rad scale 0 0 1 180 360 arc tMatrix setmatrix lrx rad sub lry rad
  sub translate rad rad scale 0 0 1 0 180 arc tMatrix setmatrix
  closepath} bdef
/FtbRR {MtbRR stroke } bdef
/PtbRR {MtbRR fill } bdef
/stri 6 array def /dtri 6 array def
/smat 6 array def /dmat 6 array def
/tmat1 6 array def /tmat2 6 array def /dif 3 array def
/asub {/ind2 exch def /ind1 exch def dup dup
  ind1 get exch ind2 get sub exch } bdef
/tri_to_matrix {
  2 0 asub 3 1 asub 4 0 asub 5 1 asub
  dup 0 get exch 1 get 7 -1 roll astore } bdef
/compute_transform {
  dmat dtri tri_to_matrix tmat1 invertmatrix 
  smat stri tri_to_matrix tmat2 concatmatrix } bdef
/ds {stri astore pop} bdef
/dt {dtri astore pop} bdef
/db {2 copy /cols xdef /rows xdef mul dup 3 mul string
  currentfile 
  3 index 0 eq {/ASCIIHexDecode filter}
  {/ASCII85Decode filter 3 index 2 eq {/RunLengthDecode filter} if }
  ifelse exch readstring pop
  dup 0 3 index getinterval /rbmap xdef
  dup 2 index dup getinterval /gbmap xdef
  1 index dup 2 mul exch getinterval /bbmap xdef pop pop}bdef
/it {gs np dtri aload pop moveto lineto lineto cp c
  cols rows 8 compute_transform 
  rbmap gbmap bbmap true 3 colorimage gr}bdef
/il {newpath moveto lineto stroke}bdef
currentdict end def
%%EndProlog

%%BeginSetup
MathWorks begin

0 cap

end
%%EndSetup

%%Page: 1 1
%%BeginPageSetup
%%PageBoundingBox:  -413    79  1026   713
MathWorks begin
bpage
%%EndPageSetup

%%BeginObject: obj1
bplot

/dpi2point 12 def
portraitMode -4956 8556 csm

    0     0 17278  7605 rc
85 dict begin %Colortable dictionary
/c0 { 0.000000 0.000000 0.000000 sr} bdef
/c1 { 1.000000 1.000000 1.000000 sr} bdef
/c2 { 0.900000 0.000000 0.000000 sr} bdef
/c3 { 0.000000 0.820000 0.000000 sr} bdef
/c4 { 0.000000 0.000000 0.800000 sr} bdef
/c5 { 0.910000 0.820000 0.320000 sr} bdef
/c6 { 1.000000 0.260000 0.820000 sr} bdef
/c7 { 0.000000 0.820000 0.820000 sr} bdef
c0
1 j
1 sg
   0    0 17279 7606 rf
6 w
0 6198 13391 0 0 -6198 2246 6768 4 MP
PP
-13391 0 0 6198 13391 0 0 -6198 2246 6768 5 MP stroke
4 w
DO
0 sg
2246 6768 mt 2246  570 L
2246  570 mt 2246  570 L
4477 6768 mt 4477  570 L
4477  570 mt 4477  570 L
6709 6768 mt 6709  570 L
6709  570 mt 6709  570 L
8941 6768 mt 8941  570 L
8941  570 mt 8941  570 L
11173 6768 mt 11173  570 L
11173  570 mt 11173  570 L
13405 6768 mt 13405  570 L
13405  570 mt 13405  570 L
15637 6768 mt 15637  570 L
15637  570 mt 15637  570 L
2246 6768 mt 15637 6768 L
15637 6768 mt 15637 6768 L
2246 4702 mt 15637 4702 L
15637 4702 mt 15637 4702 L
2246 2636 mt 15637 2636 L
15637 2636 mt 15637 2636 L
2246  570 mt 15637  570 L
15637  570 mt 15637  570 L
SO
6 w
2246  570 mt 15637  570 L
2246 6768 mt 15637 6768 L
15637 6768 mt 15637  570 L
2246 6768 mt 2246  570 L
2246 6768 mt 15637 6768 L
2246 6768 mt 2246  570 L
2246 6768 mt 2246 6634 L
2246  570 mt 2246  703 L
%%IncludeResource: font Helvetica
/Helvetica /WindowsLatin1Encoding 120 FMSR

2213 6913 mt 
(0) s
4477 6768 mt 4477 6634 L
4477  570 mt 4477  703 L
4377 6913 mt 
(500) s
6709 6768 mt 6709 6634 L
6709  570 mt 6709  703 L
6576 6913 mt 
(1000) s
8941 6768 mt 8941 6634 L
8941  570 mt 8941  703 L
8808 6913 mt 
(1500) s
11173 6768 mt 11173 6634 L
11173  570 mt 11173  703 L
11040 6913 mt 
(2000) s
13405 6768 mt 13405 6634 L
13405  570 mt 13405  703 L
13272 6913 mt 
(2500) s
15637 6768 mt 15637 6634 L
15637  570 mt 15637  703 L
15504 6913 mt 
(3000) s
2246 6768 mt 2312 6768 L
15637 6768 mt 15570 6768 L
DO
2246 6768 mt 15637 6768 L
15637 6768 mt 15637 6768 L
SO
2246 6768 mt 2379 6768 L
15637 6768 mt 15503 6768 L
2034 6812 mt 
(10) s
%%IncludeResource: font Helvetica
/Helvetica /WindowsLatin1Encoding 80 FMSR

2167 6738 mt 
(0) s
2246 6146 mt 2312 6146 L
15637 6146 mt 15570 6146 L
DO
2246 6146 mt 15637 6146 L
15637 6146 mt 15637 6146 L
SO
2246 5782 mt 2312 5782 L
15637 5782 mt 15570 5782 L
DO
2246 5782 mt 15637 5782 L
15637 5782 mt 15637 5782 L
SO
2246 5524 mt 2312 5524 L
15637 5524 mt 15570 5524 L
DO
2246 5524 mt 15637 5524 L
15637 5524 mt 15637 5524 L
SO
2246 5323 mt 2312 5323 L
15637 5323 mt 15570 5323 L
DO
2246 5323 mt 15637 5323 L
15637 5323 mt 15637 5323 L
SO
2246 5160 mt 2312 5160 L
15637 5160 mt 15570 5160 L
DO
2246 5160 mt 15637 5160 L
15637 5160 mt 15637 5160 L
SO
2246 5022 mt 2312 5022 L
15637 5022 mt 15570 5022 L
DO
2246 5022 mt 15637 5022 L
15637 5022 mt 15637 5022 L
SO
2246 4902 mt 2312 4902 L
15637 4902 mt 15570 4902 L
DO
2246 4902 mt 15637 4902 L
15637 4902 mt 15637 4902 L
SO
2246 4796 mt 2312 4796 L
15637 4796 mt 15570 4796 L
DO
2246 4796 mt 15637 4796 L
15637 4796 mt 15637 4796 L
SO
2246 4702 mt 2312 4702 L
15637 4702 mt 15570 4702 L
DO
2246 4702 mt 15637 4702 L
15637 4702 mt 15637 4702 L
SO
2246 4702 mt 2379 4702 L
15637 4702 mt 15503 4702 L
%%IncludeResource: font Helvetica
/Helvetica /WindowsLatin1Encoding 120 FMSR

2034 4746 mt 
(10) s
%%IncludeResource: font Helvetica
/Helvetica /WindowsLatin1Encoding 80 FMSR

2167 4672 mt 
(1) s
2246 4080 mt 2312 4080 L
15637 4080 mt 15570 4080 L
DO
2246 4080 mt 15637 4080 L
15637 4080 mt 15637 4080 L
SO
2246 3716 mt 2312 3716 L
15637 3716 mt 15570 3716 L
DO
2246 3716 mt 15637 3716 L
15637 3716 mt 15637 3716 L
SO
2246 3458 mt 2312 3458 L
15637 3458 mt 15570 3458 L
DO
2246 3458 mt 15637 3458 L
15637 3458 mt 15637 3458 L
SO
2246 3257 mt 2312 3257 L
15637 3257 mt 15570 3257 L
DO
2246 3257 mt 15637 3257 L
15637 3257 mt 15637 3257 L
SO
2246 3094 mt 2312 3094 L
15637 3094 mt 15570 3094 L
DO
2246 3094 mt 15637 3094 L
15637 3094 mt 15637 3094 L
SO
2246 2956 mt 2312 2956 L
15637 2956 mt 15570 2956 L
DO
2246 2956 mt 15637 2956 L
15637 2956 mt 15637 2956 L
SO
2246 2836 mt 2312 2836 L
15637 2836 mt 15570 2836 L
DO
2246 2836 mt 15637 2836 L
15637 2836 mt 15637 2836 L
SO
2246 2730 mt 2312 2730 L
15637 2730 mt 15570 2730 L
DO
2246 2730 mt 15637 2730 L
15637 2730 mt 15637 2730 L
SO
2246 2636 mt 2312 2636 L
15637 2636 mt 15570 2636 L
DO
2246 2636 mt 15637 2636 L
15637 2636 mt 15637 2636 L
SO
2246 2636 mt 2379 2636 L
15637 2636 mt 15503 2636 L
%%IncludeResource: font Helvetica
/Helvetica /WindowsLatin1Encoding 120 FMSR

2034 2680 mt 
(10) s
%%IncludeResource: font Helvetica
/Helvetica /WindowsLatin1Encoding 80 FMSR

2167 2606 mt 
(2) s
2246 2014 mt 2312 2014 L
15637 2014 mt 15570 2014 L
DO
2246 2014 mt 15637 2014 L
15637 2014 mt 15637 2014 L
SO
2246 1650 mt 2312 1650 L
15637 1650 mt 15570 1650 L
DO
2246 1650 mt 15637 1650 L
15637 1650 mt 15637 1650 L
SO
2246 1392 mt 2312 1392 L
15637 1392 mt 15570 1392 L
DO
2246 1392 mt 15637 1392 L
15637 1392 mt 15637 1392 L
SO
2246 1191 mt 2312 1191 L
15637 1191 mt 15570 1191 L
DO
2246 1191 mt 15637 1191 L
15637 1191 mt 15637 1191 L
SO
2246 1028 mt 2312 1028 L
15637 1028 mt 15570 1028 L
DO
2246 1028 mt 15637 1028 L
15637 1028 mt 15637 1028 L
SO
2246  890 mt 2312  890 L
15637  890 mt 15570  890 L
DO
2246  890 mt 15637  890 L
15637  890 mt 15637  890 L
SO
2246  770 mt 2312  770 L
15637  770 mt 15570  770 L
DO
2246  770 mt 15637  770 L
15637  770 mt 15637  770 L
SO
2246  664 mt 2312  664 L
15637  664 mt 15570  664 L
DO
2246  664 mt 15637  664 L
15637  664 mt 15637  664 L
SO
2246  570 mt 2312  570 L
15637  570 mt 15570  570 L
DO
2246  570 mt 15637  570 L
15637  570 mt 15637  570 L
SO
2246  570 mt 2379  570 L
15637  570 mt 15503  570 L
%%IncludeResource: font Helvetica
/Helvetica /WindowsLatin1Encoding 120 FMSR

2034  614 mt 
(10) s
%%IncludeResource: font Helvetica
/Helvetica /WindowsLatin1Encoding 80 FMSR

2167  540 mt 
(3) s
2246  570 mt 15637  570 L
2246 6768 mt 15637 6768 L
15637 6768 mt 15637  570 L
2246 6768 mt 2246  570 L
gs 2246 570 13392 6199 rc
24 w
335 113 335 -187 335 66 335 66 334 162 335 -4 335 -32 335 -137 
334 45 335 -16 335 214 335 -185 335 -89 334 -5 335 135 335 -197 
335 -165 334 200 335 48 335 -120 335 146 335 -161 334 145 335 -118 
335 11 335 270 334 -37 335 101 335 283 335 109 335 42 334 280 
335 218 335 274 335 234 334 280 335 271 335 410 335 514 334 584 
2246 2342 41 MP stroke
gr

24 w
gs 2100 2196 13684 4277 rc
  60   60 2246 2342 FO
  60   60 2580 2926 FO
  60   60 2915 3440 FO
  60   60 3250 3850 FO
  60   60 3585 4121 FO
  60   60 3919 4401 FO
  60   60 4254 4635 FO
  60   60 4589 4909 FO
  60   60 4924 5127 FO
  60   60 5258 5407 FO
  60   60 5593 5449 FO
  60   60 5928 5558 FO
  60   60 6263 5841 FO
  60   60 6598 5942 FO
  60   60 6932 5905 FO
  60   60 7267 6175 FO
  60   60 7602 6186 FO
  60   60 7937 6068 FO
  60   60 8271 6213 FO
  60   60 8606 6052 FO
  60   60 8941 6198 FO
  60   60 9276 6078 FO
  60   60 9611 6126 FO
  60   60 9945 6326 FO
  60   60 10280 6161 FO
  60   60 10615 5964 FO
  60   60 10950 6099 FO
  60   60 11284 6094 FO
  60   60 11619 6005 FO
  60   60 11954 5820 FO
  60   60 12289 6034 FO
  60   60 12624 6018 FO
  60   60 12958 6063 FO
  60   60 13293 5926 FO
  60   60 13628 5894 FO
  60   60 13963 5890 FO
  60   60 14297 6052 FO
  60   60 14632 6118 FO
  60   60 14967 6184 FO
  60   60 15302 5997 FO
  60   60 15637 6110 FO
gr

gs 2246 570 13392 6199 rc
gr

%%IncludeResource: font Helvetica-Bold
/Helvetica-Bold /WindowsLatin1Encoding 216 FMSR

7818 7127 mt 
(Number of iterations t) s
1930 6080 mt  -90 rotate
(Absolute error of the total estimated parameter) s
90 rotate
gs 2246 570 13392 6199 rc
DA
/c8 { 1.000000 0.000000 0.000000 sr} bdef
c8
335 240 335 -377 335 263 335 25 334 -79 335 66 335 6 335 -16 
334 42 335 -91 335 126 335 -126 335 33 334 -211 335 181 335 -11 
335 -40 334 -22 335 -127 335 411 335 -176 335 -130 334 110 335 -295 
335 230 335 105 334 -172 335 56 335 -24 335 -23 335 138 334 159 
335 -323 335 153 335 -123 334 77 335 48 335 10 335 291 334 2252 
2246 2458 41 MP stroke
gr

c8
DA
gs 2100 2312 13684 3147 rc
SO
0 j
0 -94 -94 0 0 94 94 0 2199 2411 5 MP
DP
0 -94 -94 0 0 94 94 0 2533 4663 5 MP
DP
0 -94 -94 0 0 94 94 0 2868 4954 5 MP
DP
0 -94 -94 0 0 94 94 0 3203 4964 5 MP
DP
0 -94 -94 0 0 94 94 0 3538 5012 5 MP
DP
0 -94 -94 0 0 94 94 0 3872 5089 5 MP
DP
0 -94 -94 0 0 94 94 0 4207 4966 5 MP
DP
0 -94 -94 0 0 94 94 0 4542 5119 5 MP
DP
0 -94 -94 0 0 94 94 0 4877 4796 5 MP
DP
0 -94 -94 0 0 94 94 0 5211 4955 5 MP
DP
0 -94 -94 0 0 94 94 0 5546 5093 5 MP
DP
0 -94 -94 0 0 94 94 0 5881 5070 5 MP
DP
0 -94 -94 0 0 94 94 0 6216 5046 5 MP
DP
0 -94 -94 0 0 94 94 0 6551 5102 5 MP
DP
0 -94 -94 0 0 94 94 0 6885 4930 5 MP
DP
0 -94 -94 0 0 94 94 0 7220 5035 5 MP
DP
0 -94 -94 0 0 94 94 0 7555 5265 5 MP
DP
0 -94 -94 0 0 94 94 0 7890 4970 5 MP
DP
0 -94 -94 0 0 94 94 0 8224 5080 5 MP
DP
0 -94 -94 0 0 94 94 0 8559 4950 5 MP
DP
0 -94 -94 0 0 94 94 0 8894 4774 5 MP
DP
0 -94 -94 0 0 94 94 0 9229 5185 5 MP
DP
0 -94 -94 0 0 94 94 0 9564 5058 5 MP
DP
0 -94 -94 0 0 94 94 0 9898 5036 5 MP
DP
0 -94 -94 0 0 94 94 0 10233 4996 5 MP
DP
0 -94 -94 0 0 94 94 0 10568 4985 5 MP
DP
0 -94 -94 0 0 94 94 0 10903 5166 5 MP
DP
0 -94 -94 0 0 94 94 0 11237 4955 5 MP
DP
0 -94 -94 0 0 94 94 0 11572 4988 5 MP
DP
0 -94 -94 0 0 94 94 0 11907 4862 5 MP
DP
0 -94 -94 0 0 94 94 0 12242 4988 5 MP
DP
0 -94 -94 0 0 94 94 0 12577 4897 5 MP
DP
0 -94 -94 0 0 94 94 0 12911 4939 5 MP
DP
0 -94 -94 0 0 94 94 0 13246 4923 5 MP
DP
0 -94 -94 0 0 94 94 0 13581 4929 5 MP
DP
0 -94 -94 0 0 94 94 0 13916 4995 5 MP
DP
0 -94 -94 0 0 94 94 0 14250 4916 5 MP
DP
0 -94 -94 0 0 94 94 0 14585 4941 5 MP
DP
0 -94 -94 0 0 94 94 0 14920 5204 5 MP
DP
0 -94 -94 0 0 94 94 0 15255 4827 5 MP
DP
0 -94 -94 0 0 94 94 0 15590 5067 5 MP
DP
DA
gr

gs 2246 570 13392 6199 rc
gr

0 sg
%%IncludeResource: font Helvetica
/Helvetica /WindowsLatin1Encoding 120 FMSR

2229 6811 mt 
( ) s
15621  612 mt 
( ) s
SO
6 w
1 sg
0 556 1262 0 0 -556 14316 1186 4 MP
PP
-1262 0 0 556 1262 0 0 -556 14316 1186 5 MP stroke
4 w
DO
SO
6 w
0 sg
14316  630 mt 15578  630 L
14316 1186 mt 15578 1186 L
15578 1186 mt 15578  630 L
14316 1186 mt 14316  630 L
14316 1186 mt 15578 1186 L
14316 1186 mt 14316  630 L
14316  630 mt 15578  630 L
14316 1186 mt 15578 1186 L
15578 1186 mt 15578  630 L
14316 1186 mt 14316  630 L
%%IncludeResource: font Helvetica
/Helvetica /WindowsLatin1Encoding 216 FMSR

14775  856 mt 
(Natural) s
gs 14316 630 1263 557 rc
24 w
353 0 14386 779 2 MP stroke
gs 14417 633 293 293 rc
  60   60 14563  779 FO
gr

gr

24 w
14775 1115 mt 
(Regular) s
gs 14316 630 1263 557 rc
DA
c8
353 0 14386 1036 2 MP stroke
SO
gs 14417 890 293 293 rc
0 j
0 -94 -94 0 0 94 94 0 14516 989 5 MP
DP
gr

6 w
gr

6 w
c8

end %%Color Dict

eplot
%%EndObject

epage
end

showpage

%%Trailer
%%EOF
