%!PS-Adobe-3.0 EPSF-3.0
%%Creator: MATLAB, The MathWorks, Inc. Version 7.12.0.635 (R2011a). Operating System: Microsoft Windows XP.
%%Title: \\.psf\Home\research\indoor_rssi_tracking\fwdmatlabcode\tracking_error_power_only_est.eps
%%CreationDate: 12/04/2012  12:08:40
%%DocumentNeededFonts: Helvetica
%%+ Times-Bold
%%DocumentProcessColors: Cyan Magenta Yellow Black
%%LanguageLevel: 2
%%Pages: 1
%%BoundingBox:  -413   106  1026   685
%%EndComments

%%BeginProlog
% MathWorks dictionary
/MathWorks 160 dict begin
% definition operators
/bdef {bind def} bind def
/ldef {load def} bind def
/xdef {exch def} bdef
/xstore {exch store} bdef
% operator abbreviations
/c  /clip ldef
/cc /concat ldef
/cp /closepath ldef
/gr /grestore ldef
/gs /gsave ldef
/mt /moveto ldef
/np /newpath ldef
/cm /currentmatrix ldef
/sm /setmatrix ldef
/rm /rmoveto ldef
/rl /rlineto ldef
/s {show newpath} bdef
/sc {setcmykcolor} bdef
/sr /setrgbcolor ldef
/sg /setgray ldef
/w /setlinewidth ldef
/j /setlinejoin ldef
/cap /setlinecap ldef
/rc {rectclip} bdef
/rf {rectfill} bdef
% page state control
/pgsv () def
/bpage {/pgsv save def} bdef
/epage {pgsv restore} bdef
/bplot /gsave ldef
/eplot {stroke grestore} bdef
% orientation switch
/portraitMode 0 def /landscapeMode 1 def /rotateMode 2 def
% coordinate system mappings
/dpi2point 0 def
% font control
/FontSize 0 def
/FMS {/FontSize xstore findfont [FontSize 0 0 FontSize neg 0 0]
  makefont setfont} bdef
/ISOLatin1Encoding where {pop /WindowsLatin1Encoding 256 array bdef
ISOLatin1Encoding WindowsLatin1Encoding copy pop
/.notdef/.notdef/quotesinglbase/florin/quotedblbase/ellipsis/dagger
/daggerdbl/circumflex/perthousand/Scaron/guilsinglleft/OE/.notdef/.notdef
/.notdef/.notdef/quoteleft/quoteright/quotedblleft/quotedblright/bullet
/endash/emdash/tilde/trademark/scaron/guilsinglright/oe/.notdef/.notdef
/Ydieresis WindowsLatin1Encoding 128 32 getinterval astore pop}
{/WindowsLatin1Encoding StandardEncoding bdef} ifelse
/reencode {exch dup where {pop load} {pop StandardEncoding} ifelse
  exch dup 3 1 roll findfont dup length dict begin
  { 1 index /FID ne {def}{pop pop} ifelse } forall
  /Encoding exch def currentdict end definefont pop} bdef
/isroman {findfont /CharStrings get /Agrave known} bdef
/FMSR {3 1 roll 1 index dup isroman {reencode} {pop pop} ifelse
  exch FMS} bdef
/csm {1 dpi2point div -1 dpi2point div scale neg translate
 dup landscapeMode eq {pop -90 rotate}
  {rotateMode eq {90 rotate} if} ifelse} bdef
% line types: solid, dotted, dashed, dotdash
/SO { [] 0 setdash } bdef
/DO { [.5 dpi2point mul 4 dpi2point mul] 0 setdash } bdef
/DA { [6 dpi2point mul] 0 setdash } bdef
/DD { [.5 dpi2point mul 4 dpi2point mul 6 dpi2point mul 4
  dpi2point mul] 0 setdash } bdef
% macros for lines and objects
/L {lineto stroke} bdef
/MP {3 1 roll moveto 1 sub {rlineto} repeat} bdef
/AP {{rlineto} repeat} bdef
/PDlw -1 def
/W {/PDlw currentlinewidth def setlinewidth} def
/PP {closepath eofill} bdef
/DP {closepath stroke} bdef
/MR {4 -2 roll moveto dup  0 exch rlineto exch 0 rlineto
  neg 0 exch rlineto closepath} bdef
/FR {MR stroke} bdef
/PR {MR fill} bdef
/L1i {{currentfile picstr readhexstring pop} image} bdef
/tMatrix matrix def
/MakeOval {newpath tMatrix currentmatrix pop translate scale
0 0 1 0 360 arc tMatrix setmatrix} bdef
/FO {MakeOval stroke} bdef
/PO {MakeOval fill} bdef
/PD {currentlinewidth 2 div 0 360 arc fill
   PDlw -1 eq not {PDlw w /PDlw -1 def} if} def
/FA {newpath tMatrix currentmatrix pop translate scale
  0 0 1 5 -2 roll arc tMatrix setmatrix stroke} bdef
/PA {newpath tMatrix currentmatrix pop	translate 0 0 moveto scale
  0 0 1 5 -2 roll arc closepath tMatrix setmatrix fill} bdef
/FAn {newpath tMatrix currentmatrix pop translate scale
  0 0 1 5 -2 roll arcn tMatrix setmatrix stroke} bdef
/PAn {newpath tMatrix currentmatrix pop translate 0 0 moveto scale
  0 0 1 5 -2 roll arcn closepath tMatrix setmatrix fill} bdef
/vradius 0 def /hradius 0 def /lry 0 def
/lrx 0 def /uly 0 def /ulx 0 def /rad 0 def
/MRR {/vradius xdef /hradius xdef /lry xdef /lrx xdef /uly xdef
  /ulx xdef newpath tMatrix currentmatrix pop ulx hradius add uly
  vradius add translate hradius vradius scale 0 0 1 180 270 arc 
  tMatrix setmatrix lrx hradius sub uly vradius add translate
  hradius vradius scale 0 0 1 270 360 arc tMatrix setmatrix
  lrx hradius sub lry vradius sub translate hradius vradius scale
  0 0 1 0 90 arc tMatrix setmatrix ulx hradius add lry vradius sub
  translate hradius vradius scale 0 0 1 90 180 arc tMatrix setmatrix
  closepath} bdef
/FRR {MRR stroke } bdef
/PRR {MRR fill } bdef
/MlrRR {/lry xdef /lrx xdef /uly xdef /ulx xdef /rad lry uly sub 2 div def
  newpath tMatrix currentmatrix pop ulx rad add uly rad add translate
  rad rad scale 0 0 1 90 270 arc tMatrix setmatrix lrx rad sub lry rad
  sub translate rad rad scale 0 0 1 270 90 arc tMatrix setmatrix
  closepath} bdef
/FlrRR {MlrRR stroke } bdef
/PlrRR {MlrRR fill } bdef
/MtbRR {/lry xdef /lrx xdef /uly xdef /ulx xdef /rad lrx ulx sub 2 div def
  newpath tMatrix currentmatrix pop ulx rad add uly rad add translate
  rad rad scale 0 0 1 180 360 arc tMatrix setmatrix lrx rad sub lry rad
  sub translate rad rad scale 0 0 1 0 180 arc tMatrix setmatrix
  closepath} bdef
/FtbRR {MtbRR stroke } bdef
/PtbRR {MtbRR fill } bdef
/stri 6 array def /dtri 6 array def
/smat 6 array def /dmat 6 array def
/tmat1 6 array def /tmat2 6 array def /dif 3 array def
/asub {/ind2 exch def /ind1 exch def dup dup
  ind1 get exch ind2 get sub exch } bdef
/tri_to_matrix {
  2 0 asub 3 1 asub 4 0 asub 5 1 asub
  dup 0 get exch 1 get 7 -1 roll astore } bdef
/compute_transform {
  dmat dtri tri_to_matrix tmat1 invertmatrix 
  smat stri tri_to_matrix tmat2 concatmatrix } bdef
/ds {stri astore pop} bdef
/dt {dtri astore pop} bdef
/db {2 copy /cols xdef /rows xdef mul dup 3 mul string
  currentfile 
  3 index 0 eq {/ASCIIHexDecode filter}
  {/ASCII85Decode filter 3 index 2 eq {/RunLengthDecode filter} if }
  ifelse exch readstring pop
  dup 0 3 index getinterval /rbmap xdef
  dup 2 index dup getinterval /gbmap xdef
  1 index dup 2 mul exch getinterval /bbmap xdef pop pop}bdef
/it {gs np dtri aload pop moveto lineto lineto cp c
  cols rows 8 compute_transform 
  rbmap gbmap bbmap true 3 colorimage gr}bdef
/il {newpath moveto lineto stroke}bdef
currentdict end def
%%EndProlog

%%BeginSetup
MathWorks begin

0 cap

end
%%EndSetup

%%Page: 1 1
%%BeginPageSetup
%%PageBoundingBox:  -413   106  1026   685
MathWorks begin
bpage
%%EndPageSetup

%%BeginObject: obj1
bplot

/dpi2point 12 def
portraitMode -4956 8220 csm

    0     0 17278  6939 rc
85 dict begin %Colortable dictionary
/c0 { 0.000000 0.000000 0.000000 sr} bdef
/c1 { 1.000000 1.000000 1.000000 sr} bdef
/c2 { 0.900000 0.000000 0.000000 sr} bdef
/c3 { 0.000000 0.820000 0.000000 sr} bdef
/c4 { 0.000000 0.000000 0.800000 sr} bdef
/c5 { 0.910000 0.820000 0.320000 sr} bdef
/c6 { 1.000000 0.260000 0.820000 sr} bdef
/c7 { 0.000000 0.820000 0.820000 sr} bdef
c0
1 j
1 sg
   0    0 17279 6940 rf
6 w
0 5656 13391 0 0 -5656 2246 6176 4 MP
PP
-13391 0 0 5656 13391 0 0 -5656 2246 6176 5 MP stroke
4 w
DO
0 sg
2246 6176 mt 2246  520 L
2246  520 mt 2246  520 L
6709 6176 mt 6709  520 L
6709  520 mt 6709  520 L
11173 6176 mt 11173  520 L
11173  520 mt 11173  520 L
15637 6176 mt 15637  520 L
15637  520 mt 15637  520 L
2246 6176 mt 15637 6176 L
15637 6176 mt 15637 6176 L
2246 5469 mt 15637 5469 L
15637 5469 mt 15637 5469 L
2246 4762 mt 15637 4762 L
15637 4762 mt 15637 4762 L
2246 4055 mt 15637 4055 L
15637 4055 mt 15637 4055 L
2246 3348 mt 15637 3348 L
15637 3348 mt 15637 3348 L
2246 2641 mt 15637 2641 L
15637 2641 mt 15637 2641 L
2246 1934 mt 15637 1934 L
15637 1934 mt 15637 1934 L
2246 1227 mt 15637 1227 L
15637 1227 mt 15637 1227 L
2246  520 mt 15637  520 L
15637  520 mt 15637  520 L
SO
6 w
2246  520 mt 15637  520 L
2246 6176 mt 15637 6176 L
15637 6176 mt 15637  520 L
2246 6176 mt 2246  520 L
2246 6176 mt 15637 6176 L
2246 6176 mt 2246  520 L
2246 6176 mt 2246 6042 L
2246  520 mt 2246  653 L
%%IncludeResource: font Helvetica
/Helvetica /WindowsLatin1Encoding 120 FMSR

2213 6321 mt 
(0) s
6709 6176 mt 6709 6042 L
6709  520 mt 6709  653 L
6609 6321 mt 
(500) s
11173 6176 mt 11173 6042 L
11173  520 mt 11173  653 L
11040 6321 mt 
(1000) s
15637 6176 mt 15637 6042 L
15637  520 mt 15637  653 L
15504 6321 mt 
(1500) s
2246 6176 mt 2379 6176 L
15637 6176 mt 15503 6176 L
2045 6220 mt 
(0.5) s
2246 5469 mt 2379 5469 L
15637 5469 mt 15503 5469 L
2145 5513 mt 
(1) s
2246 4762 mt 2379 4762 L
15637 4762 mt 15503 4762 L
2045 4806 mt 
(1.5) s
2246 4055 mt 2379 4055 L
15637 4055 mt 15503 4055 L
2145 4099 mt 
(2) s
2246 3348 mt 2379 3348 L
15637 3348 mt 15503 3348 L
2045 3392 mt 
(2.5) s
2246 2641 mt 2379 2641 L
15637 2641 mt 15503 2641 L
2145 2685 mt 
(3) s
2246 1934 mt 2379 1934 L
15637 1934 mt 15503 1934 L
2045 1978 mt 
(3.5) s
2246 1227 mt 2379 1227 L
15637 1227 mt 15503 1227 L
2145 1271 mt 
(4) s
2246  520 mt 2379  520 L
15637  520 mt 15503  520 L
2045  564 mt 
(4.5) s
2246  520 mt 15637  520 L
2246 6176 mt 15637 6176 L
15637 6176 mt 15637  520 L
2246 6176 mt 2246  520 L
gs 2246 520 13392 5657 rc
24 w
/c8 { 0.000000 0.000000 1.000000 sr} bdef
c8
9 -3 9 0 9 -2 9 -6 9 -5 9 1 9 2 9 2 
9 5 9 7 9 10 9 -8 9 2 8 6 9 7 9 6 
9 7 9 -4 9 -10 9 3 9 4 9 12 9 1 9 9 
9 -2 9 -11 9 1 8 1 9 -1 9 -14 9 -1 9 1 
9 -6 9 2 9 4 9 5 9 4 9 4 9 0 9 11 
9 -1 8 -5 9 -1 9 -4 9 -3 9 4 9 5 9 -4 
9 4 9 0 9 -4 9 -1 9 0 9 -1 9 1 8 -5 
9 -3 9 3 9 2 9 1 9 5 9 -1 9 -4 9 0 
9 -4 9 1 9 3 9 2 8 -3 9 -2 9 2 9 1 
9 3 9 -1 9 3 9 5 9 -1 9 3 9 6 9 1 
9 -1 9 1 8 -6 9 -5 9 1 9 1 9 5 9 2 
9 -4 9 2 9 -1 9 -1 9 2 9 -1 9 -1 9 -1 
8 0 9 -1 9 1 9 3 9 -3 9 3 9 3 9 3 
9 1 9 -8 9 6 9 -1 9 4 9 -4 8 5 9 -2 
9 -1 9 -2 9 0 9 -1 9 -3 9 3 9 1 9 0 
9 -3 9 0 9 -3 8 -2 9 0 9 0 9 2 9 -1 
9 0 9 1 9 0 9 1 9 3 9 1 9 0 9 0 
9 1 8 0 9 0 9 0 9 1 9 1 9 3 9 1 
9 3 9 -1 9 -2 9 1 9 0 9 1 9 1 8 2 
9 -2 9 -6 9 -2 9 -4 9 8 9 -3 9 -1 9 -1 
9 5 9 -7 9 3 9 3 9 -2 8 -3 9 -3 9 -1 
9 7 9 -2 9 4 9 2 9 0 9 1 9 -2 9 3 
9 2 9 -3 8 4 9 0 9 -4 9 -2 9 6 9 4 
9 3 9 -1 9 2 9 5 9 -3 9 0 9 -2 9 -2 
8 -4 9 -4 9 -1 9 -1 9 4 9 4 9 3 9 -1 
9 4 9 -4 9 0 9 0 9 0 9 0 8 1 9 -3 
9 -2 9 2 9 3 9 -1 9 -2 9 1 9 1 9 1 
9 1 9 0 9 4 9 0 8 1 9 1 9 0 9 4 
9 -1 9 0 9 3 9 -2 9 1 9 0 9 2 9 3 
9 3 8 2 9 1 9 5 9 5 9 -1 9 -3 9 1 
9 1 9 2 9 -3 9 4 9 -6 9 0 9 -1 8 3 
9 -1 9 3 9 1 9 7 9 2 9 3 9 -2 9 1 
9 0 9 5 9 0 9 5 9 2 8 3 9 1 9 8 
9 -1 9 -3 9 5 9 0 9 2 9 0 9 -2 9 -4 
9 6 9 4 9 -3 8 0 9 3 9 -2 9 -1 9 3 
9 -2 9 -1 9 -2 9 1 9 2 9 2 9 2 9 1 
8 0 9 -2 9 4 9 -2 9 4 9 4 9 6 9 1 
9 2 9 1 9 3 12967 5481 300 MP stroke
9 4 9 3 9 5 8 -5 9 0 9 1 9 4 9 3 
9 2 9 6 9 4 9 -1 9 0 9 -5 9 0 9 1 
9 7 8 8 9 -1 9 3 9 -2 9 3 9 2 9 3 
9 -2 9 3 9 5 9 4 9 -5 9 4 9 -6 8 4 
9 -1 9 4 9 1 9 -9 9 2 9 4 9 -1 9 1 
9 1 9 0 9 0 9 4 9 6 8 0 9 0 9 2 
9 4 9 -1 9 -1 9 -3 9 7 9 6 9 1 9 2 
9 0 9 0 8 2 9 2 9 0 9 -1 9 0 9 3 
9 1 9 0 9 4 9 0 9 3 9 1 9 -1 9 -1 
8 -2 9 2 9 2 9 1 9 1 9 0 9 1 9 1 
9 1 9 1 9 0 9 -1 9 0 9 2 8 2 9 1 
9 1 9 0 9 0 9 0 9 1 9 1 9 0 9 1 
9 0 9 1 9 0 9 1 8 1 9 0 9 1 9 1 
9 0 9 1 9 0 9 1 9 0 9 1 9 0 9 1 
9 1 8 0 9 1 9 1 9 0 9 1 9 1 9 -58 
9 12 9 -5 9 2 9 2 9 5 9 3 9 -8 8 0 
9 2 9 9 9 -1 9 3 9 3 9 -2 9 -4 9 2 
9 -9 9 4 9 -5 9 -6 9 -9 8 7 9 -8 9 -3 
9 6 9 10 9 -6 9 -3 9 0 9 -2 9 5 9 1 
9 -3 9 6 9 0 8 9 9 -8 9 2 9 2 9 -4 
9 3 9 4 9 -1 9 -6 9 -3 9 -6 9 4 9 -6 
8 -4 9 1 9 3 9 -6 9 6 9 9 9 9 9 0 
9 5 9 -4 9 8 9 10 9 -1 9 -12 8 -1 9 0 
9 -8 9 11 9 -2 9 -3 9 -1 9 12 9 1 9 2 
9 13 9 -13 9 -5 9 -6 8 0 9 8 9 -3 9 9 
9 5 9 1 9 9 9 -2 9 -7 9 2 9 2 9 5 
9 2 9 2 8 1 9 -1 9 -2 9 0 9 -5 9 5 
9 2 9 -4 9 -2 9 -2 9 -6 9 -3 9 4 8 1 
9 0 9 3 9 -4 9 -4 9 -7 9 -5 9 0 9 -6 
9 -2 9 -5 9 -1 9 -2 9 -1 8 5 9 4 9 5 
9 0 9 0 9 2 9 3 9 -6 9 2 9 -1 9 -6 
9 0 9 4 9 3 8 7 9 0 9 1 9 3 9 1 
9 0 9 0 9 2 9 0 9 1 9 2 9 1 9 2 
9 7 8 3 9 0 9 6 9 -3 9 2 9 -2 9 4 
9 -2 9 -1 9 6 9 1 9 1 9 -1 8 -2 9 4 
9 -1 9 4 9 1 9 3 9 1 9 4 9 0 9 3 
9 1 9 2 9 2 9 0 8 2 9 2 9 -4 9 6 
9 -1 9 0 9 2 10298 5321 300 MP stroke
9 -1 9 0 9 2 9 0 9 3 9 1 9 3 8 0 
9 2 9 2 9 5 9 3 9 1 9 3 9 3 9 0 
9 1 9 6 9 1 9 3 9 -1 8 2 9 1 9 8 
9 4 9 4 9 5 9 -1 9 3 9 0 9 -2 9 5 
9 2 9 -4 9 1 8 7 9 -2 9 2 9 -1 9 2 
9 4 9 -1 9 2 9 8 9 -6 9 8 9 3 9 2 
8 -6 9 5 9 5 9 2 9 2 9 3 9 1 9 2 
9 1 9 -3 9 6 9 3 9 7 9 -9 8 2 9 0 
9 -3 9 1 9 9 9 -3 9 5 9 10 9 9 9 5 
9 2 9 -9 9 3 9 2 8 -1 9 -4 9 -4 9 6 
9 -1 9 0 9 5 9 2 9 -6 9 3 9 -4 9 2 
9 8 9 -1 8 4 9 6 9 -3 9 4 9 8 9 -2 
9 -1 9 -2 9 3 9 3 9 -1 9 -4 9 -3 8 -7 
9 3 9 0 9 0 9 3 9 2 9 -2 9 10 9 1 
9 4 9 1 9 -2 9 0 9 3 8 5 9 1 9 1 
9 2 9 -7 9 -6 9 -3 9 -1 9 6 9 6 9 2 
9 -1 9 -4 9 2 8 0 9 3 9 -5 9 3 9 5 
9 4 9 -4 9 0 9 -4 9 1 9 3 9 0 9 2 
9 0 8 5 9 -4 9 4 9 1 9 3 9 0 9 -2 
9 1 9 4 9 0 9 2 9 -3 9 0 8 1 9 0 
9 1 9 -1 9 -1 9 -2 9 0 9 1 9 -3 9 1 
9 1 9 2 9 -2 9 0 8 0 9 0 9 5 9 0 
9 1 9 0 9 -1 9 2 9 -1 9 -4 9 4 9 1 
9 -1 9 -1 8 -1 9 2 9 1 9 1 9 3 9 -4 
9 -2 9 -2 9 0 9 -1 9 -3 9 2 9 0 9 -2 
8 1 9 1 9 1 9 0 9 -1 9 0 9 -3 9 -1 
9 0 9 1 9 -2 9 4 9 2 8 4 9 -3 9 7 
9 0 9 2 9 -6 9 3 9 0 9 0 9 0 9 3 
9 -3 9 -7 9 4 8 -1 9 -2 9 0 9 -4 9 0 
9 -1 9 1 9 2 9 -1 9 -2 9 -2 9 -1 9 1 
9 1 8 -1 9 1 9 -4 9 -4 9 1 9 -3 9 -3 
9 3 9 2 9 0 9 -3 9 2 9 6 9 3 8 -2 
9 -1 9 3 9 0 9 -1 9 3 9 -3 9 0 9 2 
9 2 9 -1 9 -1 9 -4 8 -1 9 -1 9 2 9 -1 
9 2 9 -1 9 1 9 -1 9 -3 9 0 9 -3 9 0 
9 2 9 0 8 -2 9 -2 9 0 9 1 9 -1 9 -1 
9 1 9 0 9 1 9 0 9 0 9 1 9 1 9 0 
8 0 9 0 9 0 7629 5134 300 MP stroke
9 0 9 0 9 0 9 1 9 0 9 -1 9 2 9 2 
9 1 9 -1 9 2 8 1 9 3 9 7 9 -3 9 -2 
9 -1 9 -1 9 1 9 2 9 0 9 4 9 -1 9 5 
9 0 8 12 9 3 9 10 9 14 9 5 9 -4 9 3 
9 -10 9 10 9 -3 9 2 9 -10 9 -1 8 0 9 0 
9 -4 9 -1 9 5 9 -6 9 -4 9 1 9 -1 9 8 
9 0 9 -6 9 -6 9 4 8 6 9 0 9 -7 9 -2 
9 6 9 -2 9 5 9 4 9 -1 9 -1 9 0 9 11 
9 1 9 8 8 -4 9 9 9 3 9 -5 9 7 9 8 
9 -6 9 4 9 -4 9 -4 9 1 9 -4 9 -1 9 1 
8 -1 9 0 9 -2 9 1 9 5 9 -1 9 -3 9 -13 
9 -4 9 -4 9 7 9 4 9 5 8 4 9 8 9 -1 
9 2 9 0 9 3 9 -2 9 0 9 -2 9 1 9 2 
9 2 9 -2 9 0 8 -6 9 -1 9 4 9 0 9 -3 
9 0 9 -3 9 5 9 3 9 -2 9 1 9 1 9 3 
9 -2 8 0 9 1 9 1 9 -2 9 0 9 -4 9 0 
9 1 9 -1 9 -4 9 -1 9 -2 9 1 9 -5 8 1 
9 0 9 0 9 2 9 0 9 0 9 -2 9 2 9 -3 
9 -3 9 -2 9 -2 9 2 8 -2 9 0 9 -3 9 1 
9 1 9 -3 9 -1 9 3 9 3 9 0 9 2 9 1 
9 1 9 -4 8 0 9 1 9 -1 9 1 9 2 9 -3 
9 2 9 1 9 0 9 1 9 1 9 -2 9 0 9 1 
8 1 9 -2 9 1 9 0 9 -1 9 0 9 0 9 1 
9 -1 9 -1 9 0 9 0 9 2 9 1 8 2 9 -1 
9 0 9 0 9 -1 9 0 9 0 9 1 9 -2 9 1 
9 -2 9 -1 9 -1 8 -1 9 -10 9 -5 9 -14 9 -1 
9 -6 9 6 9 4 9 -5 9 -6 9 -1 9 0 9 -5 
9 -11 8 -3 9 7 9 1 9 -5 9 13 9 1 9 -8 
9 -9 9 2 9 7 9 -9 9 6 9 3 9 6 8 10 
9 -4 9 2 9 1 9 -2 9 1 9 1 9 2 9 -2 
9 0 9 -6 9 3 9 4 9 -1 8 -3 9 8 9 -10 
9 0 9 2 9 -1 9 0 9 -1 9 0 9 2 9 2 
9 -3 9 -1 8 1 9 -1 9 -3 9 -2 9 1 9 -4 
9 -3 9 0 9 4 9 -14 9 -1 9 -6 9 -5 9 -11 
8 -4 9 1 9 -8 9 5 9 -6 9 -3 9 6 9 4 
9 -1 9 -3 9 -3 9 -5 9 0 9 4 8 11 9 10 
9 -4 9 2 9 -2 9 9 9 1 9 3 9 -1 9 -4 
9 -6 9 0 9 4 4959 5143 300 MP stroke
9 5 8 -2 9 0 9 -1 9 -1 9 -3 9 9 9 3 
9 1 9 4 9 5 9 -1 9 1 9 -1 9 -2 8 2 
9 -3 9 -4 9 1 9 -1 9 -1 9 1 9 -4 9 -1 
9 2 9 5 9 -5 9 -3 8 3 9 -7 9 3 9 2 
9 -3 9 2 9 0 9 1 9 3 9 0 9 1 9 -3 
9 -1 9 0 8 1 9 -2 9 4 9 0 9 -2 9 3 
9 3 9 -4 9 1 9 0 9 2 9 3 9 -1 9 2 
8 -1 9 -4 9 4 9 2 9 -1 9 0 9 -1 9 3 
9 -1 9 -2 9 -3 9 4 9 0 9 -3 8 0 9 -3 
9 -1 9 -2 9 2 9 -3 9 3 9 0 9 -1 9 -5 
9 -3 9 -8 9 1 8 6 9 -2 9 -1 9 -4 9 0 
9 -3 9 -6 9 -2 9 3 9 1 9 -1 9 -6 9 0 
9 -2 8 -3 9 -2 9 -2 9 0 9 7 9 -1 9 -3 
9 2 9 2 9 1 9 1 9 -1 9 0 9 -1 8 -2 
9 4 9 1 9 -7 9 0 9 -1 9 1 9 2 9 0 
9 2 9 2 9 1 9 -1 9 29 8 0 9 33 9 66 
9 -65 9 0 9 65 9 65 9 0 9 65 9 66 9 -135 
9 68 9 137 8 -71 9 34 9 0 9 35 9 -35 9 -34 
9 68 9 138 9 260 9 -114 9 -75 9 186 9 113 9 0 
8 -37 9 116 9 -308 9 73 9 -220 9 220 9 -75 9 113 
9 37 9 -38 9 -75 9 75 9 116 9 77 8 41 9 298 
9 163 9 -17 9 104 9 246 9 -123 9 20 9 274 9 254 
9 -6 9 -274 9 196 9 -273 8 -31 9 -5 9 -87 9 157 
9 519 9 367 9 -515 9 -22 9 145 9 368 9 389 9 357 
9 -124 8 24 9 385 9 197 9 -17 9 -368 9 -135 9 -24 
9 285 9 403 9 -320 9 -199 9 303 9 -12 9 35 8 -285 
9 -37 9 195 9 -19 9 -245 9 -372 9 44 9 -141 9 -5 
9 279 9 232 9 -413 9 1 9 158 8 -168 9 -473 9 154 
9 81 9 -231 9 -539 9 -312 9 219 9 -51 9 -148 9 56 
9 -80 9 -87 9 87 8 390 9 -100 9 -209 9 132 9 69 
9 89 9 235 9 -119 9 -266 9 327 9 254 9 -86 9 144 
8 366 9 -93 9 -248 9 -58 9 8 9 150 9 -168 9 -429 
9 123 9 198 9 -355 9 202 9 -95 9 -4 8 -220 9 -44 
9 38 9 -118 9 -50 9 -5 9 163 9 -146 9 -44 9 338 
9 -266 9 -191 9 -417 9 -69 8 -34 9 22 9 -130 9 -360 
9 464 9 -23 9 256 9 -110 9 61 9 -607 9 231 9 341 
9 96 9 -93 8 -61 9 483 9 -139 9 324 9 -295 9 -241 
9 415 9 235 9 236 2290 2816 300 MP stroke
9 197 9 224 9 -327 9 81 2254 2641 5 MP stroke
gr

24 w
c8
0 sg
%%IncludeResource: font Times-Bold
/Times-Bold /WindowsLatin1Encoding 168 FMSR

8189 6492 mt 
(Number of iterations) s
1954 4398 mt  -90 rotate
(Mean squared tracking error) s
90 rotate
6 w

end %%Color Dict

eplot
%%EndObject

epage
end

showpage

%%Trailer
%%EOF
